"channel/UC-_rafaedfpKrTFFUGlU5-g","hachiroku24"
"channel/UC-cJAp3DIphthxTErH7AGtg","BigPlanes"
"channel/UC-f2WBfSCZiu0bOBydjot3w","Yarnhub"
"channel/UC-t9WXlKiH6crqyhB2U3RBg","John Kettle"
"channel/UC-tsNNJ3yIW98MtPH6PWFAQ","iDubbbzTV2"
"channel/UC067MO4ZVsbA8QDJG0qCTJQ","Jack Ganssle"
"channel/UC06HVrkOL33D5lLnCPjr6NQ","Breaking Taps"
"channel/UC0AWCHIGeLsYbJ3pRpIoigQ","Allied Catalogs"
"channel/UC0EBncG-etbOllK4h_tGULQ","MattKC Dumping Ground"
"channel/UC0T7tvy44mlQCjaTtparOZw","Jer Schmidt"
"channel/UC0e3QhIYukixgh5VVpKHH9Q","Code Bullet"
"channel/UC0gwpcwMAtCOIdeuLbP8p0g","Addison Chernow"
"channel/UC0jH8saG0_RAw7iJeSI86cA","SleepyCow's Lego Corner"
"channel/UC0tq0g5u2bo-TErZt7SJM6w","The Sound Traveler"
"channel/UC0woBco6Dgcxt0h8SwyyOmw","Megaprojects"
"channel/UC0xfaqWkufgl2YrxDLckqxQ","Tom Elemans"
"channel/UC15BJjhPr4d5gTClhmC4HRw","Elliot Coll"
"channel/UC1AK451J7bKkJRq2qkJEv4w","hackLAB"
"channel/UC1D3yD4wlPMico0dss264XA","NileBlue"
"channel/UC1DYoJxAZ5MY-FGY96XS1OQ","9Rain"
"channel/UC1H1NWNTG2Xi3pt85ykVSHA","Jordan Harrod"
"channel/UC1ZBQ-F-yktYD4m5AzM6pww","Mustard"
"channel/UC1_uAIS3r8Vu6JjXWvastJg","Mathologer"
"channel/UC1h6F3LO2aWZ7LeARWACkFg","August is Falling"
"channel/UC1iK6gmYyIVKwib_uONz5Qg","Alexey Kutepov"
"channel/UC1sWwB45heL1CfLHLBXCXow","Bens Appliances and Junk"
"channel/UC1t7KxXy44QC5qC1R0h53Mg","Scarfolk Council"
"channel/UC1ydE9gDHTdvbNVIgEKIKzw","VWestlife"
"channel/UC26fAZFKjn6Zo4J4UcGfOeQ","Nasa105"
"channel/UC2C_jShtL725hvbm1arSV9w","CGP Grey"
"channel/UC2DjFE7Xf11URZqWBigcVOQ","EEVblog"
"channel/UC2ESxEzSNhHzFbnsJb49pNA","Дмитрий DiKobraz"
"channel/UC2MJylovjrLtsGP0_4UrqrQ","Cody'sBLab"
"channel/UC2bkHVIDjXS7sgrgjFtzOXQ","engineerguy"
"channel/UC2ieJOOHCngPnsXQ4Tk_AKA","ANO tech world"
"channel/UC2rzsm1Qi6N1X-wuOg_p0Ng","Project Farm"
"channel/UC3KEoMzNz8eYnwBC34RaKCQ","Simone Giertz"
"channel/UC3S8vxwRfqLBdIhgRlDRVzw","stacksmashing"
"channel/UC4Abl9Z_dKFxA7fRFnGPLiA","The Create Unknown"
"channel/UC4UHJRFbzu7JXNjeUBd8dwQ","Joan Cornellà"
"channel/UC4pNDofN0Xh-z2bhh62g8Ow","Not What You Think"
"channel/UC4tir8iEyWBvL_bBl1GjdYg","Girl Behind the Keyboard"
"channel/UC513PdAP2-jWkJunTh5kXRw","CrunchLabs"
"channel/UC52kszkc08-acFOuogFl5jw","Tibees"
"channel/UC54SLBnD5k5U3Q6N__UjbAw","Chinese Cooking Demystified"
"channel/UC5I2hjZYiW9gZPVkvzM8_Cw","Techmoan"
"channel/UC5Jz6SBlu2Sv61kfssv4DOw","The FACTs of Mechanical Design"
"channel/UC5Pnrxqqg4BLTsfsUzWw5Pw","HVACR VIDEOS"
"channel/UC5UAwBUum7CPN5buc-_N1Fw","The Linux Experiment"
"channel/UC6107grRI4m0o2-emgoDnAA","SmarterEveryDay"
"channel/UC67gfx2Fg7K2NSHqoENVgwA","Tom Stanton"
"channel/UC68lcOoPo7lIvGCkGDd2Z-g","Offhand Disney"
"channel/UC6NEXZflFAvd1b7cAIe3XOw","Youtube Pedant"
"channel/UC6nSFpj9HTCZ5t-N3Rm3-HA","Vsauce"
"channel/UC78Ib99EBhMN3NemVjYm3Ig","Grant Sanderson"
"channel/UC7IvFCTmRWh5--Lmo623Qaw","video99.co.uk"
"channel/UC7_gcs09iThXybpVgjHZ_7g","PBS Space Time"
"channel/UC7yF9tV4xWEMZkel7q8La_w","PeterSripol"
"channel/UC8-VPb0BrTumJCcAk5kKD8w","Spookdog"
"channel/UC8Q7XEy86Q7T-3kNpNjYgwA","Incognito Mode"
"channel/UC8XjmAEDVZSCQjI150cb4QA","Knowing Better"
"channel/UC8lAvS7_nwI5wuMC5zyJVwA","Marc Rebillet - Topic"
"channel/UC8rKCy_tipwTEY3RdkNCKmw","한눈에 보는 세상 – Kurzgesagt"
"channel/UC8uT9cgJorJPWu7ITLGo9Ww","The 8-Bit Guy"
"channel/UC9-y-6csu5WGm29I7JiwpnA","Computerphile"
"channel/UC9evhW4JB_UdXSLeZGy8lGw","Raid Owl"
"channel/UC9yt3wz-6j19RwD5m5f6HSg","Think Twice"
"channel/UCA0g3liRXdpqyhxiQiE55tA","MinuteFood"
"channel/UCAL3JXZSzSm8AlZyD3nQdBA","Primitive Technology"
"channel/UCAT4Wspt20ltihGZFZV5xRg","Reviews for Nerds"
"channel/UCAk3hMAJJ7oAP2ciRM5tAvQ","WildMudkip"
"channel/UCBa659QWEk1AI4Tg--mrJ2A","Tom Scott"
"channel/UCBlXovStrlQkVA2xJEROUNg","Marcel Vos"
"channel/UCBw0bL8MtOIl1UX7db2MT3A","The Always Sunny Podcast"
"channel/UCCYb8bp7v9maNk5n3nfw-Lg","Em Poucas Palavras – Kurzgesagt"
"channel/UCCZDt7MuC3Hzs6IH4xODLBw","Nahamsec"
"channel/UCCs8qEi8D2u_g1ZKDU82adg","Goldthread"
"channel/UCDJACu5LRKWE7sqagICB-ew","Spice8Rack"
"channel/UCDLD_zxiuyh1IMasq9nbjrA","DAVID LYNCH THEATER"
"channel/UCDX7cO28VXOvEdrwpWFQu0g","Hannah Diamond"
"channel/UCDYytfm5PZin4N0hT_nLxDQ","Barshens"
"channel/UCDbWmfrwmzn1ZsGgrYRUxoA","The Post Apocalyptic Inventor"
"channel/UCDq5v10l4wkV5-ZBIJJFbzQ","Ethan Chlebowski"
"channel/UCE8ya-n9pNdlvaJCOH7KHLA","Keen On Keys"
"channel/UCEFPJ3Qc_0tvKQBYDO-UKvQ","Link'sOcarina"
"channel/UCEIwxahdLz7bap-VDs9h35A","Steve Mould"
"channel/UCEN7Ij6ZaEz2c7rpLwblL5Q","TM Extras"
"channel/UCEbYhDd6c6vngsF5PQpFVWg","Tsoding"
"channel/UCF-ACPYNN0oXD4ihS5mbbmw","Gaz Oakley"
"channel/UCGeIjGngCkErevSNHdZYD5Q","Storymode"
"channel/UCGiJeCKTVKIxtaYZOidh19g","Dunk Tank"
"channel/UCH74Hc_7WYVzx1GXhLEH6Eg","Mathologer 2"
"channel/UCHC4G4X-OR5WkY-IquRGa3Q","Tom Scott plus"
"channel/UCHnj59g7jezwTy5GeL8EA_g","MindYourDecisions"
"channel/UCHnyfMqiRRG1u-2MsSQLbXA","Veritasium"
"channel/UCILl8ozWuxnFYXIe2svjHhg","BPS.space"
"channel/UCIR1LQvYrHOWBpOGq5nFo0Q","आसान शब्दों में — Kurzgesagt"
"channel/UCIWa6sZ1JvD_Y-1hp-8FaDQ","Bankstandin'"
"channel/UCJ0-OtVpF0wOKEqT2Z1HEtA","ElectroBOOM"
"channel/UCJLZe_NoiG0hT7QCX_9vmqw","I did a thing"
"channel/UCK8XIGR5kRidIw2fWqwyHRA","Reducible"
"channel/UCKzJFdi57J53Vr_BkTfN3uQ","Primer"
"channel/UCLB7AzTwc6VFZrBsO2ucBMg","Robert Miles"
"channel/UCLETGP_YrFvmdQCS7cLhdag","Steve Mould Shorts"
"channel/UCLx053rWZxCiYWsBETgdKrQ","LGR"
"channel/UCMACXuWd2w6_IEGog744UaA","Derek Rook"
"channel/UCMOqf8ab-42UUQIdVoKwjlQ","Practical Engineering"
"channel/UCMb0O2CdPBNi-QqPk5T3gsQ","James Hoffmann"
"channel/UCMiyV_Ib77XLpzHPQH_q0qQ","Veronica Explains"
"channel/UCMpizQXRt817D0qpBQZ2TlA","singingbanana"
"channel/UCMrMVIBtqFW6O0-MWq26gqw","my mechanics"
"channel/UCNA2_jQGKATyYecLcLN2HnA","MattKC Music"
"channel/UCNM3W16DLgPc6NR1xHs5xbw","Charborg"
"channel/UCNNfzr9A5dEOscVEDyyzo-A","LiveUnderflow"
"channel/UCNWVswPNgn5kutPNa5sprkg","hasherezade"
"channel/UCO-zhhas4n_kAPHaeLe1qnQ","The Technical Difficulties"
"channel/UCOEBdkUz1E0fpG3LbHyIFDA","The Mechanical Philosopher"
"channel/UCOGeU-1Fig3rrDjhm9Zs_wg","Vihart"
"channel/UCOZ1NKYanuObKp5Uemkcqxg","Frietpan Frank"
"channel/UCOZE5llobz3pjPRP69d0Ejg","Tibees2"
"channel/UCOaGbPc6VIAV5OwZF_Afluw","Naz Osmanoglu"
"channel/UCOgK3J7WTOl5f5Fd51kcoSg","Veritasium 한국어 - 베리타시움"
"channel/UCOk-gHyjcWZNj3Br4oxwh0A","Techno Tim"
"channel/UCPLD2k_xsq2qf2Q9Ti-C9yg","Technicmaster0 Tutorials and more"
"channel/UCQALLeQPoZdZC4JNUboVEUg","Jabrils"
"channel/UCQN2DsjnYH60SFBIA6IkNwg","STÖK"
"channel/UCR1D15p_vdP3HkrH8wgjQRw","Internet Historian"
"channel/UCRHFnRniDEGJCZgsEgtUPxA","Kristina Balaam"
"channel/UCRPktNf5vnBR1J4e7t1RUVg","Field Day"
"channel/UCRUULstZRWS1lDvJBzHnkXA","Matt and Tom"
"channel/UCRkZUf1TpQFYYb6dUaGM27g","My Memes"
"channel/UCS-WzPVpAAli-1IfEG2lN8A","Michael MJD"
"channel/UCS0N5baNlQWJCUrhCEo8WlA","Ben Eater"
"channel/UCSju5G2aFaWMqn-_0YBtq5A","Stand-up Maths"
"channel/UCSlMemxuBOFu6Rz_Al02nHQ","Ms Mad Lemon"
"channel/UCTGHqw41qk_WyK3wJK7nweg","Brickcrafts"
"channel/UCTGrgT-Ld4kH3CxHnCMGn8w","Big Car"
"channel/UCTP6kt3N8UyBNO6RANr6AIg","EVScape"
"channel/UCTl0dASnxto6j2wlVs5Bs2Q","George Hart"
"channel/UCUB9vOGEUpw7IKJRoR4PK-A","Murmus CTF"
"channel/UCUHW94eEFW7hkUMVaZz4eDg","minutephysics"
"channel/UCUQHsAYGhWhKUpy8MfE1ddg","Veritasium Italia"
"channel/UCUU3GdGuQshZFRGnxAPBf_w","TD BRICKS"
"channel/UCUaiGrBfRCaC6pL7ZnZjWbg","JK Brickworks"
"channel/UCUcaft-3hNIuB1L1IgARPoQ","The Naked Photographer"
"channel/UCUuvZ0skL2WYZ3rhPMZbfdA","Brick Technology"
"channel/UCVFXrUwuWxNlm6UNZtBLJ-A","MalwareAnalysisForHedgehogs"
"channel/UCVS89U86PwqzNkK2qYNbk5A","Allen Pan"
"channel/UCVnIvJuTZqM5nnwGFpA57_Q","No Dumb Questions"
"channel/UCVo63lbKHjC04KqYhwSZ_Pg","Defunctland"
"channel/UCW6MNdOsqv2E9AjQkv9we7A","PwnFunction"
"channel/UCWLFdU7vq9xUvznT3OzJvKA","SirLarr's Shorts"
"channel/UCXnNibvR_YIdyPs8PZIBoEw","Cathode Ray Dude [CRD]"
"channel/UCXtxgWwk55kVJo9lCCZRdmg","Veritasium en español"
"channel/UCY1kMZp36IQSyNx_9h4mpCg","Mark Rober"
"channel/UCYJdpnjuSWVOLgGT9fIzL0g","Jelle's Marble Runs"
"channel/UCYO_jab_esuFRV4b17AJtAw","3Blue1Brown"
"channel/UCZNhwA1B5YqiY1nLzmM0ZRg","Christian Lempa"
"channel/UCZYvU-ZWbgl1rJv0trRk_fA","Tim Station"
"channel/UCZcvCpFcLxOKGbMocVgLjEA","En Pocas Palabras – Kurzgesagt"
"channel/UC_6luMR5xA4lRBA2mq53JEQ","MinuteEarthArabic دقيقة أرض"
"channel/UC_SLthyNX_ivd-dmsFgmJVg","Jeremy Fielding"
"channel/UC_jX1r7deAcCJ_fTtM9x8ZA","Fatherhood Engineered"
"channel/UCa6eh7gCkpPo5XXUDfygQQA","IppSec"
"channel/UCafxR2HWJRmMfSdyZXvZMTw","LOOK MUM NO COMPUTER"
"channel/UCbAUKL7V6OOGumQEeDMYQvQ","Blitz City DIY"
"channel/UCbbQalJ4OaC0oQ0AqRaOJ9g","Jay Foreman"
"channel/UCbjgKwnWnGG7sKCPTRgrFcw","GPS"
"channel/UCbwp5B-uDBy-fS4bDA0TEaw","BBC Earth Unplugged"
"channel/UCcDzxOd6Q6OLvBYNH2q98EQ","Homemade Home"
"channel/UCcTt3O4_IW5gnA0c58eXshg","8-Bit Keys"
"channel/UCdH_8mNJ9vzpHwMNwlz88Zw","De Avondshow met Arjen Lubach | VPRO"
"channel/UCdsOTr6SmDrxuWE7sJFrkhQ","BBC Earth Lab"
"channel/UCdyb5XxNlm6bX94U4hyusgQ","Aan & Matig Animatie"
"channel/UCeiYXex_fwgYDonaTcSIk6w","MinuteEarth"
"channel/UCekQr9znsk2vWxBo3YiLq2w","You Suck At Cooking"
"channel/UCepFoY2QjSR5SlMnKGlzJtg","Rargh"
"channel/UCewg2tYzQLkyKv-6FSbJtfg","MinuteMinis"
"channel/UCf6kbcafhNg5B-HaybBOkYg","Puddin's Fab Shop"
"channel/UCfDNi1aEljAQ17mUrfUjkvg","Alton Brown"
"channel/UCfE5Cz44GlZVyoaYTHJbuZw","Guga Foods"
"channel/UCfMJ2MchTSW2kWaT0kK94Yw","William Osman"
"channel/UCftUpOO4h9EgH0eDOZtjzcA","Jan Beta"
"channel/UCgRBRE1DUP2w7HTH9j_L4OQ","Medlife Crisis"
"channel/UChBEbMKI1eCcejTtmI32UEw","Joshua Weissman"
"channel/UChWv6Pn_zP0rI6lgGt3MyfA","AvE"
"channel/UChrYe70o7NmDioL02PRVWVg","MattKC"
"channel/UCiHEO7rwUFriDIRznvONzSQ","J1mbo"
"channel/UCj9IJ2QvygoBJKSOnUgXIRA","PhilsComputerLab"
"channel/UCjEfu9Kr6dRAhPtIgY66oVQ","Fx Bricks"
"channel/UCkGvUEt8iQLmq3aJIMjT2qQ","EEVdiscover"
"channel/UCk_nBvBjw0DuEtrT8Sxv5vA","Valk Cubing"
"channel/UClRwC5Vc8HrB6vGx6Ti-lhA","Technology Connextras"
"channel/UClcE-kVhqyiHCcjYwcpfj9w","LiveOverflow"
"channel/UClqhvGmHcvWL9w3R48t9QXQ","Engineering Explained"
"channel/UClsFdM0HzTdF1JYoraQ0aUw","Brick Experiment Channel"
"channel/UCm9K6rby98W8JigLoZOh6FQ","LockPickingLawyer"
"channel/UCmDbU28nYPw2c11NMQfH66Q","Mark Cooper-Jones"
"channel/UCmOR-vW0Hh4Q7-VemHNaETA","JK Extras"
"channel/UCmW1gxCoUCyWBAMDJ0J1MbQ","Veritasium Russia"
"channel/UCmafpEjYI9WZH32DT0ebB1g","Veritasium Arabic - فريتاسيوم بالعربي"
"channel/UCn5ASYdp7CzbFH2qtqjIJ9w","بكل بساطة – Kurzgesagt"
"channel/UCnZJt7yQw5IztVwe-Dscd-Q","The Operations Room"
"channel/UCo-UabaGleyY7a9saGSMNkg","Veritasium in हिन्दी"
"channel/UCoL8olX-259lS1N6QPyP4IQ","Action Retro"
"channel/UCovWb1k6bzg3VtHOkXihChQ","Desert Eagle LEGO® Technic Creations"
"channel/UCoxcjq-8xIDTYp3uz647V5A","Numberphile"
"channel/UCp3yVOm6A55nx65STpm3tXQ","Craft Computing"
"channel/UCp9fa8BLkst2gO_umj9BjYg","Veritasium Català"
"channel/UCpFuaxD-0PKLolFR3gWhrMw","Sous Vide Everything"
"channel/UCpQB577lHFyWTyvrS73Ldlg","Brick Science"
"channel/UCqCg6nlsQdulY4W1-peSjsQ","J1mmy"
"channel/UCqLbTAc5Mn2cJDu1-FZ2W3g","Tiago Catarino"
"channel/UCqM1Yw5XfJ5rVwCntLy0KxA","Low Budget Stories"
"channel/UCrqM0Ym_NbK1fqeQG2VIohg","Tsoding Daily"
"channel/UCrv269YwJzuZL3dH5PCgxUw","CodeParade"
"channel/UCs-w7E2HZWwXmjt9RTvBB_A","Settled"
"channel/UCs4aHmggTfFrpkPcWSaBN9g","PBS Infinite Series"
"channel/UCsA9BVmiT0sG4d6cwBzpM6Q","Weastie"
"channel/UCsXVk37bltHxD1rDPwtNM8Q","Kurzgesagt – In a Nutshell"
"channel/UCsrY4q8xGPJQbQ8HPQZn6iA","Engineering Explained Extra"
"channel/UCsvn_Po0SmunchJYOWpOxMg","videogamedunkey"
"channel/UCtAIs1VCQrymlAnw3mGonhw","Flammable Maths"
"channel/UCtM5z2gkrGRuWd0JQMx76qA","bigclivedotcom"
"channel/UCtZX_67hSjOIPu0HTmFi6aw","Macintosh Librarian"
"channel/UCtoBnL9JM0r_ZVXABGFkCyg","GoldPlatedGoof"
"channel/UCtwKon9qMt5YLVgQt1tvJKg","Objectivity"
"channel/UCuL-5ytBmu6KG0BwjSFaD0g","NOT ANOTHER COOKING SHOW"
"channel/UCuM3xKQ_D0RIMMSUh9AYxNA","Way of Ramen"
"channel/UCvB6IRnw0HmxDsxrg9HQoJw","Spencer"
"channel/UCvBqzzvUBLCs8Y7Axb-jZew","Sixty Symbols"
"channel/UCvMJIy6LY1LZlToh7c-gJJA","DIY PLUMBING ANOUAR"
"channel/UCwN9hjjqUl9VB51um_73hVg","NPO 3"
"channel/UCw_Sxdt27ASqErScT4Rlj8A","LGR Blerbs"
"channel/UCwd5VFu4KoJNjkWJZMFJGHQ","Jacob Sorber"
"channel/UCwxgo62w72LxZDA1fTibdYg","Camera Conspiracies"
"channel/UCxByVUuLdxxiqQVmbOnDEzw","Erik Grankvist"
"channel/UCxEyesAXNzQySjb8nENZhGQ","Het officiële LuckyTV-kanaal"
"channel/UCxHeOI0pg0I0x4CFOyUni9Q","Veritasium auf Deutsch"
"channel/UCxt9Pvye-9x_AIcb1UtmF1Q","ashens"
"channel/UCy0tKL1T7wFoYcxCe0xjN6Q","Technology Connections"
"channel/UCyR3nxaP7mtOGGEUSHTcgqw","mjdextras"
"channel/UCyilAU6skfVwhkAFZICS9Cg","Technic Brick Power"
"channel/UCyp1gCHZJU_fGWFf2rtMkCg","Numberphile2"
"channel/UCyxc8nFBnbeokWnfp4JFecw","Flutten"
"channel/UCz9uUFDhsPYii-ZihoKsbPg","LGR Foods"
"channel/UCzEEdt2Yd7JhY8ihqlrYCLg","More MattKC"
"channel/UCzMHLUJ8xTqDq6xsk0N5IdQ","Tout Simplement – Kurzgesagt"
"channel/UCzml9bXoEM0itbcE96CB03w","DroneBot Workshop"
"channel/UCzw2KK537iRgsrYnWaEMs8Q","世界をわかりやすく – Kurzgesagt"
"user/1veritasium","Veritasium"
"user/2veritasium","2veritasium"
"user/3DprintedLife","3DprintedLife"
"user/900HAL900","Chas Large"
"user/ACSReactions","Reactions"
"user/Afrotechmods","Afrotechmods"
"user/AintBigAintClever","AintBigAintClever"
"user/AkBKukU","Tech Tangents"
"user/AlanKey86","AlanKey86"
"user/AnglopheniaTV","Anglophenia"
"user/AsapSCIENCE","AsapSCIENCE"
"user/Auroratrek","Auroratrek"
"user/BBC","BBC"
"user/BBCClassicDoctorWho","Classic DW"
"user/BBCEarth","BBC Earth"
"user/BBCWorldwide","BBC Studios"
"user/BackstageScience","BackstageScience"
"user/BedBananas","BedBananas"
"user/Bisqwit","Bisqwit"
"user/Blackeight87","Der Graf FPV"
"user/BlinkPopShift","BlinkPopShift"
"user/Bobensen","Bobensen"
"user/BostonDynamics","Boston Dynamics"
"user/BotSottile","Filippo Valsorda"
"user/BradyStuff","BradyStuff"
"user/BrothersGreenEats","Pro Home Cooks"
"user/BuckingTheTrend2008","Paul Jenkinson"
"user/Bullshitkorner","BackCountry Wrenching"
"user/CGPGrey","CGP Grey"
"user/CGQuarterly","Classic Gaming Quarterly"
"user/CaptainDisillusion","Captain Disillusion"
"user/CarThrottle","Car Throttle"
"user/CartoonHangover","Cartoon Hangover"
"user/ChrisIller","Chris Iller"
"user/ChrisWereDigital","Chris Were Digital"
"user/Computerphile","Computerphile"
"user/ContourCorsets","Fran Blanche"
"user/CraigTalk","Craig Tube"
"user/CuVoodoo","CuVoodoo"
"user/DIYPerks","DIY Perks"
"user/DeepSkyVideos","DeepSkyVideos"
"user/DrJamesTanton","DrJamesTanton"
"user/EEVblog","EEVblog"
"user/ESA","European Space Agency, ESA"
"user/EarthUnpluggedTV","BBC Earth Unplugged"
"user/Eneryblue","Gears and Gasoline"
"user/EricTheCarGuy","EricTheCarGuy"
"user/EugeneKhutoryansky","Physics Videos by Eugene Khutoryansky"
"user/EverST88","UnPuntoCircular"
"user/Fake0Name","Connor Wolf"
"user/FavScientist","FavScientist"
"user/FenslerFilm","FenslerFilm"
"user/FrankJavCee","FrankJavCee"
"user/FrenchGuyCooking","Alex"
"user/FunnerEveryDay","Smarter Every Day 2"
"user/FuzzyMemoriesTV","The Museum of Classic Chicago Television (www.FuzzyMemories.TV)"
"user/GHPAnimatronics","Garner Holt Productions, Inc."
"user/GameReviewerArchive","The Video Game Reviewer Archive"
"user/Glittablitx","Bouphe"
"user/GynvaelEN","GynvaelEN"
"user/Hacker00125","BrickVendor"
"user/HarryPartridge","Harry Partridge"
"user/HeadsqueezeTV","BBC Earth Lab"
"user/HelenArney","Helen Arney"
"user/HowToBasic","HowToBasic"
"user/HumbleMechanic","HumbleMechanic"
"user/ISOGAWAYoshihito","Yoshihito ISOGAWA"
"user/Jaytso666","Art of Engineering"
"user/JtheLinuxguy","Learn Linux TV"
"user/JustKiddingFilms","JustKiddingFilms"
"user/KQEDDeepLook","Deep Look"
"user/KurzgesagtDE","Dinge Erklärt – Kurzgesagt"
"user/LarryBundyJr","Larry Bundy Jr"
"user/LinusTechTips","Linus Tech Tips"
"user/LookingGlassUniverse","Looking Glass Universe"
"user/MINUTEFOOD","MinuteFood"
"user/MalumTV","MAWAAN"
"user/MarkDouglas","MarkDouglas"
"user/MartinsVidsDotNet","MartinsVidsDotNet"
"user/MeerkatAudio","MeerkatAudio"
"user/MikeJtvmusic","Mike Jeavons"
"user/MindYourDecisions","MindYourDecisions"
"user/MinutePourLaTerre","MinutePourLaTerre"
"user/MinutoDaFisica","Minuto da Física"
"user/MinutoDaTerra","Minuto da Terra"
"user/MinutoDeLaTierra","MinutoDeLaTierra"
"user/MultiverseOfficial","The Multiverse"
"user/NativLang","NativLang"
"user/NatureVideoChannel","nature video"
"user/NeXTSTORMING","NeXTSTORM"
"user/NeilCicierega","Neil Cicierega"
"user/OliPutland","Oli"
"user/Ornsack","Guksack"
"user/OskarPuzzle","OskarPuzzle"
"user/PBSFood","PBS Food"
"user/PHvlogger","PHvlogger"
"user/PaintballOO7","ChrisFix"
"user/PboyTrif","Pboy Playz"
"user/Perifractic","Retro Recipes"
"user/PewDiePie","PewDiePie"
"user/PhilosophyFile","PhilosophyFile"
"user/Photonvids","Photonicinduction"
"user/RSC1254","Ray's Garage"
"user/RapidBug","InsiderPhD"
"user/Rhumsaa82","Rhumsaa82"
"user/Roelpraatdoor","Roel Maalderink"
"user/RootOfTheNull","John Hammond"
"user/Ryan94Mc","Ryan McLoughlin"
"user/ScopeofScience","Kurtis Baute"
"user/SeriousEats","Serious Eats"
"user/SingleHaloClips","SingleHaloClips"
"user/SnubsieBoo","Shannon Morse"
"user/StanWinstonSchool","Stan Winston School"
"user/SuperHouseTV","SuperHouseTV"
"user/SupportTransMilitary","TransMilitary"
"user/TEDtalksDirector","TED"
"user/Taylorns34","Welch Labs"
"user/Techmoan","Techmoan"
"user/ThatScienceGuyJames","ProjectAir"
"user/TheBackyardScientist","TheBackyardScientist"
"user/TheGeekPub","TheGeekPub"
"user/TheRedNile","NileRed"
"user/TheRobocross1","Compressorhead"
"user/TheSignalPathBlog","The Signal Path"
"user/TheSingingNerd","TheSingingNerd"
"user/TheSpanglerEffect","TheSpanglerEffect"
"user/TheTecknowledge","Lawrence Systems"
"user/Theoatrix","Theoatrix OSRS"
"user/TippingPointMath","Tipping Point Math"
"user/TomSka","TomSka"
"user/TyYann","TyYann"
"user/VE3n0m","Torxed"
"user/Vihart","Vihart"
"user/Vsauce","Vsauce"
"user/Webzwithaz","OverSimplified"
"user/YeanyScience","Bruce Yeany"
"user/YourMovieSucksDOTorg","YourMovieSucksDOTorg"
"user/ZetaTwo","Calle Svensson"
"user/ZimoNitrome","ZimoNitrome"
"user/Zuru100","Lucien Hughes"
"user/adge0042","adeorade"
"user/adric22","The 8-Bit Guy"
"user/agingwheels","Aging Wheels"
"user/akgreaves","Andrew Greaves"
"user/akiyuky","Akiyuki Brick Channel"
"user/allaboutanne18","Anne of All Trades"
"user/allinaday","David Hoffman"
"user/alltime10s","Alltime10s"
"user/americastestkitchen","America's Test Kitchen"
"user/antoineshapiro","My Name Is Andong"
"user/aperiodical","The Aperiodical"
"user/aragusea","Adam Ragusea"
"user/arduinoversusevil","AvE"
"user/baldwinleijen","Baldwin Leijen"
"user/barelypolitical","The Key of Awesome"
"user/bgfilms","Babish Culinary Universe"
"user/bibledex","bibledex"
"user/bigclivedotcom","bigclivedotcom"
"user/bkraz333","Applied Science"
"user/blackpenredpen","blackpenredpen"
"user/bladergroen","Aafke Romeijn"
"user/bourlotg","LED Projects"
"user/braincraftvideo","BrainCraft"
"user/britishpathe","British Pathé"
"user/camkar361","X Copter"
"user/ceticismoaberto","Kentaro Mori"
"user/colinfurze","colinfurze"
"user/craig1black","Adrian's Digital Basement"
"user/crashcourse","CrashCourse"
"user/crysknife007","crysknife007"
"user/damienslash","Damien Slash"
"user/davisrichardg","13Cubed"
"user/destinws2","SmarterEveryDay"
"user/douglby","Dan Bull"
"user/eaterbc","Ben Eater"
"user/eevblog2","EEVblog2"
"user/electronupdate","electronupdate"
"user/emmymadeinjapan","emmymade"
"user/engineerguyvideo","engineerguy"
"user/enyay","Tom Scott"
"user/ericsurf6","Ericsurf6"
"user/extraashens","extraashens"
"user/featony","This Old Tony"
"user/flow","Flow"
"user/foodskey","foodskey"
"user/foodwishes","Food Wishes"
"user/geerlingguy","Jeff Geerling"
"user/gemmaarrowsmith","gemmaarrowsmith"
"user/geofftech2","Geoff Marshall"
"user/gradyhillhouse","Practical Engineering"
"user/greatscottlab","GreatScott!"
"user/greencylinder1234","Jacob Scott"
"user/henryseg","Henry Segerman"
"user/hetklokhuis","Het Klokhuis"
"user/homestarrunnerdotcom","homestarrunnerdotcom"
"user/howtocookthat","How To Cook That"
"user/howtopaintinfo","howtopaintinfo"
"user/icc3a1800","Rinoa's Auspicious Travails"
"user/iliketomakestuffcom","I Like To Make Stuff"
"user/iskiml0ot","Framed"
"user/itsokaytobesmart","Be Smart"
"user/jakechudnow","Jake Chudnow"
"user/jayforeman51","Jay Foreman"
"user/jeriellsworth","Jeri Ellsworth"
"user/jetlag2222","jetlag2222"
"user/jimmydiresta","jimmydiresta"
"user/joannelovesscience","Joanne Manaster"
"user/jojofosho0709","JoJo Gomez"
"user/josleys","Jos Leys"
"user/jtkilroy","James T. Kilroy Jr."
"user/julius256","Julian Ilett"
"user/kenjialt","J. Kenji López-Alt"
"user/khanacademy","Khan Academy"
"user/kyliecaravan","kyliecaravan"
"user/lasagnacat","lasagnacat"
"user/lousypandah","Lousy Pandah"
"user/ltdan1504","Internet Shaquille"
"user/mahj","Mahj"
"user/matthewcooke42","Matthew Cooke"
"user/mentski","Mentski"
"user/mentulatus","Danny's LAB - Custom LEGO creations"
"user/mercmilan06","mercmilan06"
"user/micahjd","scanlime"
"user/micahmuzio","Micah Muzio"
"user/microboyd","Mike Boyd"
"user/mikeselectricstuff","mikeselectricstuff"
"user/minuteearth","MinuteEarth"
"user/minutelabsio","MinuteLabs.io"
"user/minutemandolin","minutemandolin"
"user/minutephysics","minutephysics"
"user/minutodefisica","MinutoDeFisica"
"user/miscpro","Savvas Papasavva"
"user/mismag822","Mismag822 - The Card Trick Teacher"
"user/mjlorton","mjlorton"
"user/mortalpoet","Jesse J. Jones"
"user/msadaghd","ElectroBOOM"
"user/nico71240","Nico71's Lego Technic Creations"
"user/nixiedoeslinux","NixieDoesLinux"
"user/norcal715","NorCal715"
"user/nottinghamscience","nottinghamscience"
"user/numberphile","Numberphile"
"user/obscuresorrows","Dictionary of Obscure Sorrows"
"user/onemeeeliondollars","Mark Rober"
"user/pbsideachannel","PBS Idea Channel"
"user/periodicvideos","Periodic Videos"
"user/phdunes","Brick Engineering"
"user/phreakindee","LGR"
"user/physicswoman","Physics Girl"
"user/psychicpebbles","psychicpebbles"
"user/psyfile","psyfile"
"user/radweld","FR3NZYFPV"
"user/ramyfrah","Ramy RC"
"user/rctestflight","rctestflight"
"user/saabkyle04","Saabkyle04"
"user/samandniko","Corridor Crew"
"user/sammybartl","THIS MUSEUM IS (NOT) OBSOLETE"
"user/schmoyoho","schmoyoho"
"user/sciencium","Sciencium"
"user/scishow","SciShow"
"user/scishowspace","SciShow Space"
"user/scottytrotter","scottytrotter"
"user/searme","Sariel's Bricks & Pets"
"user/sickanimation","Sick Animation"
"user/singingbanana","singingbanana"
"user/sixteenvalvergti","Matthew Mitocky"
"user/sixtysymbols","Sixty Symbols"
"user/sortedfood","Sorted Food"
"user/standupmaths","Stand-up Maths"
"user/steventhebrave","Steve Mould"
"user/subaruwrxfan","Matt Maran Motoring"
"user/suchachix","Clare Wasser"
"user/superazote","Ivan Miranda"
"user/taylorfunkyb3","Automatown"
"user/techguruuk","Dan Wood"
"user/teksyndicate","Level1Techs"
"user/testedcom","Adam Savage’s Tested"
"user/thatistheplan","thatistheplan"
"user/theCodyReeder","Cody'sLab"
"user/thebrainscoop","thebrainscoop"
"user/thefatmoop","thefatmoop"
"user/theslowmoguys","The Slow Mo Guys"
"user/tippetopphysics","GASTROFÍSICA"
"user/tuxreviews","Gardiner Bryant | TLG"
"user/twofingersincider","Mend It Mark"
"user/urbanTrash","frank howarth"
"user/uxwbill","uxwbill"
"user/vlogbrothers","vlogbrothers"
"user/vwest1ife","You Can't Download Vinyl"
"user/vwest7ife","VWestlife's Camcorder Tests & More"
"user/w2aew","w2aew"
"user/wheezywaiter","WheezyWaiter"
"user/zefrank1","zefrank1"
